{
  "name": "App Icons Taskbar",
  "description": "A simple app icon taskbar. Show running apps and favorites on the main panel.",
  "uuid": "aztaskbar@aztaskbar.gitlab.com",
  "gettext-domain": "aztaskbar",
  "settings-schema": "org.gnome.shell.extensions.aztaskbar",
  "version": 7,
  "shell-version": ["42"],
  "url": "https://gitlab.com/AndrewZaech/aztaskbar"
}
